<?xml version="1.0" encoding="utf-8"?>
<!-- Generator: Adobe Illustrator 19.2.1, SVG Export Plug-In . SVG Version: 6.00 Build 0)  -->
<svg version="1.1" id="Layer_1" xmlns="http://www.w3.org/2000/svg"  x="0px" y="0px"
	 viewBox="0 0 60 60" style="enable-background:new 0 0 60 60;" xml:space="preserve">
<style type="text/css">
	.st0{fill:#51C0E1;}
	.st1{fill:none;stroke:#FFFFFF;stroke-width:2;stroke-linecap:square;stroke-miterlimit:10;}
	.st2{fill:none;stroke:#FFFFFF;stroke-width:2;stroke-miterlimit:10;}
</style>
<g>
	<g>
		<path class="st0" d="M30,59.5C13.7,59.5,0.5,46.3,0.5,30S13.7,0.5,30,0.5S59.5,13.7,59.5,30S46.3,59.5,30,59.5z"/>
	</g>
</g>
<g>
	<g>
		<g>
			<g>
				<g>
					<path class="st1" d="M40.5,24l4.5-4"/>
					<path class="st1" d="M42.1,35H49"/>
					<path class="st1" d="M40.5,45l4.5,5"/>
					<path class="st1" d="M19.5,45L15,50"/>
					<path class="st1" d="M17.9,35H11"/>
					<path class="st1" d="M19.5,24L15,20"/>
					<path class="st1" d="M33.2,12.4c0,0,1.5-5.2,3.8-6.3"/>
					<path class="st1" d="M26.8,12.4c0,0-1.5-5.2-3.8-6.3"/>
					<path class="st2" d="M36.4,20.5c0.1-0.5,0.2-1,0.2-1.5c0-3.6-3-6.6-6.6-6.6c-3.6,0-6.6,3-6.6,6.6c0,0.5,0.1,1,0.2,1.4"/>
					<path class="st2" d="M30,18c6.7,0,12.1,7.4,12.1,16.5S36.7,51,30,51s-12.1-7.4-12.1-16.5S23.3,18,30,18z"/>
				</g>
			</g>
		</g>
	</g>
</g>
</svg>
