<?xml version="1.0" encoding="utf-8"?>
<!-- Generator: Adobe Illustrator 19.2.1, SVG Export Plug-In . SVG Version: 6.00 Build 0)  -->
<svg version="1.1" id="Layer_1" xmlns="http://www.w3.org/2000/svg"  x="0px" y="0px"
	 viewBox="0 0 60 60" style="enable-background:new 0 0 60 60;" xml:space="preserve">
<style type="text/css">
	.st0{fill:#FFFFFF;}
	.st1{fill:none;stroke:#51C0E1;stroke-width:2;stroke-linecap:square;stroke-miterlimit:10;}
</style>
<g>
	<g>
		<path class="st0" d="M30,59.5C13.7,59.5,0.5,46.3,0.5,30S13.7,0.5,30,0.5S59.5,13.7,59.5,30S46.3,59.5,30,59.5z"/>
	</g>
</g>
<g>
	<g>
		<path class="st1" d="M23.4,36.7h-1h-0.9l-7.6,7.6v-7.6h-3.8c-1,0-1.9-0.9-1.9-1.9V13.9c0-1,0.9-1.9,1.9-1.9h32.3
			c1,0,1.9,0.9,1.9,1.9v8.6v0.9"/>
		<path class="st1" d="M39.5,27.2H50c1,0,1.9,0.9,1.9,1.9v15.2c0,1-0.9,1.9-1.9,1.9H48V50l-3.8-3.8H29c-1,0-1.9-0.9-1.9-1.9V29.1
			c0-1,0.9-1.9,1.9-1.9H39.5"/>
	</g>
</g>
</svg>
