<?xml version="1.0" encoding="utf-8"?>
<!-- Generator: Adobe Illustrator 19.2.1, SVG Export Plug-In . SVG Version: 6.00 Build 0)  -->
<svg version="1.1" id="Layer_1" xmlns="http://www.w3.org/2000/svg"  x="0px" y="0px"
	 viewBox="0 0 60 60" style="enable-background:new 0 0 60 60;" xml:space="preserve">
<style type="text/css">
	.st0{fill:none;stroke:#53C0E1;stroke-width:2;stroke-linecap:square;stroke-miterlimit:10;}
</style>
<path class="st0" d="M50.6,11.4c0.5,0.5,0.5,1.4-0.1,2.1c-2.3,2.6-12.3,13.8-14.4,16.4c-1.4,1.8-3.7,5.7-7.9,7.9
	c-0.4,0.2-0.7,0.7-1.1,1.1c-0.6,0.6-1.5,0.7-2.1,0l-2-2c-0.7-0.7-0.5-1.5,0.1-2c0.4-0.4,0.9-0.7,1.1-1.1c2.2-4.2,6.1-6.4,7.9-7.9
	c2.6-2,13.7-12.1,16.4-14.4C49.2,10.9,50.1,10.8,50.6,11.4z"/>
<path class="st0" d="M24.1,37.7l-1-1c-7.8-1.6-5.4,7.5-11.7,9.7c6.4,2.1,16-1.1,13.9-7.5L24.1,37.7z"/>
</svg>
