<?xml version="1.0" encoding="utf-8"?>
<!-- Generator: Adobe Illustrator 19.2.1, SVG Export Plug-In . SVG Version: 6.00 Build 0)  -->
<svg version="1.1" id="Layer_1" xmlns="http://www.w3.org/2000/svg"  x="0px" y="0px"
	 viewBox="0 0 60 60" style="enable-background:new 0 0 60 60;" xml:space="preserve">
<style type="text/css">
	.st0{fill:#FFFFFF;}
	.st1{opacity:0.6;fill:#53C0E1;enable-background:new    ;}
	.st2{fill:none;stroke:#53C0E1;stroke-width:2;stroke-linecap:round;stroke-linejoin:round;stroke-miterlimit:10;}
</style>
<g>
	<path class="st0" d="M30,59.5C13.7,59.5,0.5,46.3,0.5,30S13.7,0.5,30,0.5S59.5,13.7,59.5,30S46.3,59.5,30,59.5z"/>
</g>
<path id="HALF" class="st1" d="M42.8,32.6l-1.6,17.2C41.1,50.5,40.1,51,39,51H21c-1.1,0-2.1-0.5-2.2-1.2l-1.7-18.4
	c7.1,0,9.3,0.3,12.9,0.6C33.5,32.3,35.8,32.6,42.8,32.6z"/>
<path class="st2" d="M30,9h15l-3.8,40c-0.1,1.1-1.1,2-2.2,2H21c-1.1,0-2.1-0.9-2.2-2L15,9H30z"/>
</svg>
