<?xml version="1.0" encoding="utf-8"?>
<!-- Generator: Adobe Illustrator 19.2.1, SVG Export Plug-In . SVG Version: 6.00 Build 0)  -->
<svg version="1.1" id="Layer_1" xmlns="http://www.w3.org/2000/svg"  x="0px" y="0px"
	 viewBox="0 0 60 60" style="enable-background:new 0 0 60 60;" xml:space="preserve">
<style type="text/css">
	.st0{opacity:0.2;}
	.st1{fill:none;stroke:#FFFFFF;stroke-miterlimit:10;}
	.st2{opacity:0.3;fill:#53C0E1;enable-background:new    ;}
	.st3{opacity:0.2;fill:none;stroke:#53C0E1;stroke-width:2;stroke-linecap:round;stroke-linejoin:round;stroke-miterlimit:10;}
</style>
<g class="st0">
	<path class="st1" d="M30,59.5C13.7,59.5,0.5,46.3,0.5,30S13.7,0.5,30,0.5S59.5,13.7,59.5,30S46.3,59.5,30,59.5z"/>
</g>
<path id="FULL" class="st2" d="M44,20l-2.8,29c-0.1,1.1-1.1,2-2.2,2H21c-1.1,0-2.1-0.9-2.2-2L16,18c7.1,0,10.6,0.5,14.1,1
	S37.1,20,44,20z"/>
<path class="st3" d="M30,9h15l-3.8,40c-0.1,1.1-1.1,2-2.2,2H21c-1.1,0-2.1-0.9-2.2-2L15,9H30z"/>
</svg>
