<?xml version="1.0" encoding="utf-8"?>
<!-- Generator: Adobe Illustrator 19.2.1, SVG Export Plug-In . SVG Version: 6.00 Build 0)  -->
<svg version="1.1" id="Layer_1" xmlns="http://www.w3.org/2000/svg"  x="0px" y="0px"
	 viewBox="0 0 60 60" style="enable-background:new 0 0 60 60;" xml:space="preserve">
<style type="text/css">
	.st0{opacity:0.6;fill:#53C0E1;enable-background:new    ;}
	.st1{fill:none;stroke:#53C0E1;stroke-width:2;stroke-linecap:round;stroke-linejoin:round;stroke-miterlimit:10;}
</style>
<path id="FULL" class="st0" d="M44,20l-2.8,29c-0.1,1.1-1.1,2-2.2,2H21c-1.1,0-2.1-0.9-2.2-2L16,18c7.1,0,10.6,0.5,14.1,1
	S37.1,20,44,20z"/>
<path class="st1" d="M30,9h15l-3.8,40c-0.1,1.1-1.1,2-2.2,2H21c-1.1,0-2.1-0.9-2.2-2L15,9H30z"/>
</svg>
