<?xml version="1.0" encoding="utf-8"?>
<!-- Generator: Adobe Illustrator 19.2.1, SVG Export Plug-In . SVG Version: 6.00 Build 0)  -->
<svg version="1.1" id="Layer_1" xmlns="http://www.w3.org/2000/svg"  x="0px" y="0px"
	 viewBox="0 0 60 60" style="enable-background:new 0 0 60 60;" xml:space="preserve">
<style type="text/css">
	.st0{fill:none;stroke:#53C0E1;stroke-width:2;stroke-linecap:round;stroke-linejoin:round;stroke-miterlimit:10;}
	.st1{fill:none;stroke:#53C0E1;stroke-width:2;stroke-linecap:square;stroke-miterlimit:10;}
</style>
<path class="st0" d="M30,21.8C27.8,20,26,19,23,19c-2.2,0-4.1,0.5-5.8,1.5C13.3,22.7,11,27,11,32c0,2.2,0.4,4.5,1,6.8
	c0.6,2.1,1.3,4.2,2.3,6c0.9,1.8,1.9,3.4,3,4.7C19,51.7,21,53,23,53c1.5,0,3-0.5,4.3-1.2c1.7-1,3.8-1,5.4,0C34,52.5,35.5,53,37,53
	c2.1,0,4.2-1.5,6-3.7c1.5-1.9,2.9-4.4,4-7.2c1.3-3.3,2-6.9,2-10.1c0-4.5-1.8-8.4-5-10.7c-1.9-1.4-4.3-2.3-7-2.3
	C34,19,32.2,20,30,21.8z"/>
<path class="st1" d="M39,9c-4,1-8,5-8.9,9"/>
<path class="st1" d="M21,7c0,0,5,1,7,4c1.7,2.5,2.1,7,2.1,7S25,17,23,14C21.5,11.8,21,7,21,7z"/>
</svg>
