<?xml version="1.0" encoding="utf-8"?>
<!-- Generator: Adobe Illustrator 19.2.1, SVG Export Plug-In . SVG Version: 6.00 Build 0)  -->
<svg version="1.1" id="Layer_1" xmlns="http://www.w3.org/2000/svg"  x="0px" y="0px"
	 viewBox="0 0 60 60" style="enable-background:new 0 0 60 60;" xml:space="preserve">
<style type="text/css">
	.st0{opacity:0.6;fill:#53C0E1;}
	.st1{fill:none;stroke:#53C0E1;stroke-width:2;stroke-miterlimit:10;}
	.st2{fill:none;stroke:#53C0E1;stroke-width:2;stroke-linecap:square;stroke-miterlimit:10;}
</style>
<path class="st0" d="M20,26c11,0,9-2,19-2l0,0l6,24l-29.4-0.6L20,26L20,26z"/>
<path class="st1" d="M37,6v10l7.9,29.1c0.5,1.6-0.5,2.9-2.1,2.9H17.2c-1.7,0-2.6-1.3-2.1-2.9L23,16V6"/>
<line class="st2" x1="22" y1="6" x2="38" y2="6"/>
</svg>
