<?xml version="1.0" encoding="utf-8"?>
<!-- Generator: Adobe Illustrator 19.2.1, SVG Export Plug-In . SVG Version: 6.00 Build 0)  -->
<svg version="1.1" id="Layer_1" xmlns="http://www.w3.org/2000/svg"  x="0px" y="0px"
	 viewBox="0 0 60 60" style="enable-background:new 0 0 60 60;" xml:space="preserve">
<style type="text/css">
	.st0{fill:none;stroke:#FFFFFF;stroke-width:2;stroke-linecap:square;stroke-miterlimit:10;}
	.st1{fill:none;stroke:#FFFFFF;stroke-linecap:square;stroke-miterlimit:10;}
</style>
<g>
	<path class="st0" d="M9,47V29h10v18"/>
	<path class="st0" d="M25,47V21h10v26"/>
	<path class="st0" d="M41,47V13h10v34"/>
	<line class="st0" x1="7" y1="47" x2="53" y2="47"/>
</g>
<circle class="st1" cx="30" cy="30" r="29.5"/>
</svg>
