<?xml version="1.0" encoding="utf-8"?>
<!-- Generator: Adobe Illustrator 19.2.1, SVG Export Plug-In . SVG Version: 6.00 Build 0)  -->
<svg version="1.1" id="Layer_1" xmlns="http://www.w3.org/2000/svg"  x="0px" y="0px"
	 viewBox="0 0 60 60" style="enable-background:new 0 0 60 60;" xml:space="preserve">
<style type="text/css">
	.st0{fill:#FFFFFF;}
	.st1{opacity:0.6;fill:#53C0E1;enable-background:new    ;}
	.st2{fill:none;stroke:#53C0E1;stroke-width:2;stroke-linecap:square;stroke-miterlimit:10;}
</style>
<g>
	<path class="st0" d="M30,59.5C13.7,59.5,0.5,46.3,0.5,30S13.7,0.5,30,0.5S59.5,13.7,59.5,30S46.3,59.5,30,59.5z"/>
</g>
<path class="st1" d="M14.2,30.1c0,8.8,7,15.8,15.8,15.8s15.8-7,15.8-15.8 M30,30L30,30L30,30L30,30L30,30z"/>
<circle class="st2" cx="30" cy="30" r="21.2"/>
</svg>
