<?xml version="1.0" encoding="utf-8"?>
<!-- Generator: Adobe Illustrator 19.2.1, SVG Export Plug-In . SVG Version: 6.00 Build 0)  -->
<svg version="1.1" id="Layer_1" xmlns="http://www.w3.org/2000/svg"  x="0px" y="0px"
	 viewBox="0 0 60 60" style="enable-background:new 0 0 60 60;" xml:space="preserve">
<style type="text/css">
	.st0{fill:none;stroke:#FFFFFF;stroke-miterlimit:10;}
	.st1{fill:none;stroke:#FFFFFF;stroke-linecap:square;stroke-miterlimit:10;}
</style>
<g>
	<path class="st0" d="M30.3,10.6c5.2,0.1,10.1,0.4,14.9,1.5c3.4,0.7,5.2,2.7,5.7,6.1c0.6,3.9,0.6,7.7,0.5,11.6
		c0,1.4-0.5,2.5-1.5,3.4c-3.1,2.9-5.5,6.3-7.2,10.2c-0.3,0.6-0.6,1.1-0.8,1.7c-1.3,2.6-3.5,4.3-6.4,5c-3.7,1-7.4,0.9-11.1,0
		c-3.1-0.8-5.1-2.7-6.6-5.5c-0.4-0.7-0.8-1.3-1.1-2.1c-1.6-3.9-4.2-7.2-7.2-10c-0.5-0.5-0.8-1-0.9-1.8c-0.1-4.2-0.2-8.3,0.5-12.5
		c0.1-0.8,0.4-1.6,0.6-2.5c0.4-1.5,1.5-2.6,3-3.1c1.9-0.6,3.8-1.1,5.8-1.4C22.5,10.6,26.5,10.6,30.3,10.6z M41,13.9
		c-0.2,0-0.2-0.1-0.3-0.1c-2.6-0.2-5.1-0.5-7.7-0.6c-4.5-0.2-9,0-13.4,0.5c-0.4,0-0.5,0.2-0.4,0.5c0.1,0.7,0.1,1.5,0.2,2.2
		c0.3,3.2,0.5,6.4,0.8,9.6c0.3,3.8,0.6,7.5,0.9,11.3c0.2,2.6,0.4,5.2,0.6,7.9c0,0.3,0.3,0.7,0.5,1c0.8,0.8,1.9,1.2,3,1.5
		c2.4,0.7,4.9,0.7,7.3,0.4c1.8-0.2,3.4-0.6,5-1.6c0.5-0.3,0.7-0.7,0.8-1.4c0.1-2,0.3-3.9,0.5-5.9c0.3-3.4,0.6-6.8,0.9-10.1
		c0.3-3.3,0.6-6.7,0.9-10C40.7,17.3,40.8,15.6,41,13.9z M11.1,29.1c2.2-0.5,4.4-0.9,6.6-1.3c-0.4-4.5-0.7-9-1.1-13.6
		c-0.7,0.2-1.3,0.4-1.9,0.5c-1.7,0.4-2.5,1.4-2.8,3.1c-0.6,3.2-0.8,6.4-0.7,9.6C11.1,28,11.1,28.6,11.1,29.1z M43.5,14.2
		c-0.4,4.6-0.8,9-1.2,13.4c2.2,0.5,4.4,1,6.5,1.5V29c-0.1-2.8-0.1-5.6-0.3-8.5c-0.1-1.4-0.5-2.7-0.9-4.1c-0.1-0.3-0.3-0.7-0.6-0.8
		C46,15.1,44.8,14.6,43.5,14.2z M41.2,40.3c1.8-3.2,4.1-6.1,6.7-8.8c-1.9-0.7-3.8-1.1-5.8-1.4C41.8,33.6,41.5,37,41.2,40.3z"/>
	<path class="st0" d="M18.8,40.4c-0.3-3.4-0.6-6.7-0.9-10.2c-2,0.3-3.9,0.6-5.8,1.4C14.7,34.3,17,37.2,18.8,40.4z"/>
</g>
<path class="st0" d="M29.6,26.6c0.3-0.2,0.6-0.5,0.9-0.9c0.1,0.1,0.3,0.2,0.3,0.2c0.3-0.3,1-1,0.9-1c-0.6-0.6-1.2-1.2-1.9-1.9
	c-0.1-0.2-0.3-0.2-0.5-0.2c-0.2,0.1-0.7,0.4-0.7,0.6c-0.1,0.4-0.2,0.8-0.4,1.1c-0.3,0.5-0.9,0.5-1.3,0.1s-0.8-0.7-1.1-1.1
	c-0.9-1-0.9-2.4,0-3.4s2.4-1.1,3.4-0.3c0.5,0.4,1,0.9,1.4,1.4c0.1,0.1,0.1,0.2,0.1,0.3c0,0.3,0.2,0.5,0.4,0.7c1,1,2.1,2.1,3.1,3.1
	c0.6,0.6,0.9,1.4,0.6,2.3c-0.4,1.4-2.2,1.9-3.3,1C30.9,28.1,30.3,27.3,29.6,26.6z M26.7,21.7c0,0.4,0.4,0.8,0.8,0.8s0.8-0.4,0.8-0.8
	s-0.4-0.8-0.8-0.8C27,20.9,26.7,21.3,26.7,21.7z M32.8,26.1c-0.4,0-0.7,0.3-0.7,0.7c0,0.4,0.3,0.7,0.7,0.7s0.7-0.3,0.7-0.7
	S33.2,26.1,32.8,26.1z"/>
<circle class="st1" cx="30" cy="30" r="29.5"/>
</svg>
