<?xml version="1.0" encoding="utf-8"?>
<!-- Generator: Adobe Illustrator 19.2.1, SVG Export Plug-In . SVG Version: 6.00 Build 0)  -->
<svg version="1.1" id="Layer_1" xmlns="http://www.w3.org/2000/svg"  x="0px" y="0px"
	 viewBox="0 0 60 60" style="enable-background:new 0 0 60 60;" xml:space="preserve">
<style type="text/css">
	.st0{fill:#FFFFFF;}
	.st1{fill:#FFFFFF;}
	.st3{fill:none;stroke:#FFFFFF;stroke-linecap:square;stroke-miterlimit:10;}
</style>
	<path class="st1" d="M28.6,37.3h-2.1l-1.7-4.2l-1.4-4.2L22,33.2l-1.6,4.1h-2.1L13.4,24h2.8l3.1,9.6l3.2-9.6h1.6l3.3,9.6l3-9.6h2.8
		L28.6,37.3z"/>
	<path class="st1" d="M46.1,35.6c-1.4,1.4-3.1,2-5.1,2c-4.9,0-7-3.4-7-6.9c0-3.5,2.2-7,7-7c1.8,0,3.5,0.7,4.9,2l-1.7,1.6
		c-0.9-0.9-2.1-1.3-3.2-1.3c-3.2,0-4.6,2.4-4.6,4.6c0,2.2,1.3,4.5,4.6,4.5c1.2,0,2.5-0.5,3.3-1.3L46.1,35.6z"/>
<circle class="st3" cx="30" cy="30" r="29.5"/>
</svg>
