<?xml version="1.0" encoding="utf-8"?>
<!-- Generator: Adobe Illustrator 19.2.1, SVG Export Plug-In . SVG Version: 6.00 Build 0)  -->
<svg version="1.1" id="Layer_1" xmlns="http://www.w3.org/2000/svg"  x="0px" y="0px"
	 viewBox="0 0 60 60" style="enable-background:new 0 0 60 60;" xml:space="preserve">
<style type="text/css">
	.st0{fill:#FFFFFF;}
	.st1{fill:none;stroke:#51C0E1;stroke-width:2;stroke-miterlimit:10;}
	.st2{fill:none;stroke:#51C0E1;stroke-width:2;stroke-linecap:square;stroke-miterlimit:10;}
</style>
<g>
	<g>
		<path class="st0" d="M30,59.5C13.7,59.5,0.5,46.3,0.5,30S13.7,0.5,30,0.5S59.5,13.7,59.5,30S46.3,59.5,30,59.5z"/>
	</g>
</g>
<g>
	<g>
		<g>
			<path class="st1" d="M50.1,41.2c3.9-6.9,3.9-15.5,0-22.4"/>
			<path class="st1" d="M39.8,35c1.6-3.1,1.6-6.9,0-10"/>
			<path class="st1" d="M41.2,50.1c-6.9,3.9-15.5,3.9-22.4,0"/>
			<path class="st1" d="M35,39.8c-3.1,1.6-6.9,1.6-10,0"/>
			<path class="st1" d="M9.9,41.2C6,34.3,6,25.7,9.9,18.8"/>
			<path class="st1" d="M20.2,35c-1.6-3.1-1.6-6.9,0-10"/>
			<path class="st1" d="M41.2,9.9C34.3,6,25.7,6,18.8,9.9"/>
			<path class="st1" d="M35,20.2c-3.1-1.6-6.9-1.6-10,0"/>
			<path class="st2" d="M46.3,13.7c-1.5-1.5-3.2-2.8-5.1-3.8L35,20.2c1,0.5,1.9,1.2,2.8,2c0.8,0.8,1.5,1.8,2,2.8l10.3-6.2
				C49.1,17,47.8,15.3,46.3,13.7z"/>
			<path class="st2" d="M46.3,46.3c-1.5,1.5-3.2,2.8-5.1,3.8L35,39.8c1-0.5,1.9-1.2,2.8-2s1.5-1.8,2-2.8l10.3,6.2
				C49.1,43,47.8,44.7,46.3,46.3z"/>
			<path class="st2" d="M13.7,46.3c1.5,1.5,3.2,2.8,5.1,3.8L25,39.8c-1-0.5-1.9-1.2-2.8-2s-1.5-1.8-2-2.8L9.9,41.2
				C10.9,43,12.2,44.7,13.7,46.3z"/>
			<path class="st2" d="M13.7,13.7c1.5-1.5,3.2-2.8,5.1-3.8L25,20.2c-1,0.5-1.9,1.2-2.8,2c-0.8,0.8-1.5,1.8-2,2.8L9.9,18.8
				C10.9,17,12.2,15.3,13.7,13.7z"/>
		</g>
	</g>
</g>
</svg>
