<?xml version="1.0" encoding="utf-8"?>
<!-- Generator: Adobe Illustrator 19.2.1, SVG Export Plug-In . SVG Version: 6.00 Build 0)  -->
<svg version="1.1" id="Layer_1" xmlns="http://www.w3.org/2000/svg"  x="0px" y="0px"
	 viewBox="0 0 60 60" style="enable-background:new 0 0 60 60;" xml:space="preserve">
<style type="text/css">
	.st0{fill:#51C0E1;}
	.st1{fill:none;stroke:#FFFFFF;stroke-miterlimit:10;}
</style>
<g>
	<g>
		<path class="st0" d="M30,59.5C13.7,59.5,0.5,46.3,0.5,30S13.7,0.5,30,0.5S59.5,13.7,59.5,30S46.3,59.5,30,59.5z"/>
	</g>
</g>
<g>
	<path class="st1" d="M49.7,48.4H10.2c-1.3,0-2.4-1.1-2.4-2.4V14c0-1.3,1.1-2.4,2.4-2.4h39.5c1.3,0,2.4,1.1,2.4,2.4v32
		C52.1,47.3,51,48.4,49.7,48.4z"/>
	<path class="st1" d="M48.9,48.4c-0.4-0.3-17.9-17.9-24.3-24.3c-1.3-1.3-3.3-1.3-4.6,0L7.7,36.3"/>
	<path class="st1" d="M37.2,36.8l4.4-4.4c1.3-1.3,3.3-1.3,4.6,0l6.1,6.1"/>
	<circle class="st1" cx="37.4" cy="21.3" r="5.3"/>
</g>
</svg>
