<?xml version="1.0" encoding="utf-8"?>
<!-- Generator: Adobe Illustrator 19.2.1, SVG Export Plug-In . SVG Version: 6.00 Build 0)  -->
<svg version="1.1" id="Layer_1" xmlns="http://www.w3.org/2000/svg"  x="0px" y="0px"
	 viewBox="0 0 60 60" style="enable-background:new 0 0 60 60;" xml:space="preserve">
<style type="text/css">
	.st0{fill:#FFFFFF;}
	.st1{fill:none;stroke:#51C0E1;stroke-width:2;stroke-linecap:square;stroke-miterlimit:10;}
</style>
<g>
	<g>
		<path class="st0" d="M30,59.5C13.7,59.5,0.5,46.3,0.5,30S13.7,0.5,30,0.5S59.5,13.7,59.5,30S46.3,59.5,30,59.5z"/>
	</g>
</g>
<g>
	<g>
		<g>
			<path class="st1" d="M9.9,46.3V29h9.6v17.2"/>
			<path class="st1" d="M25.2,46.3V21.4h9.6v24.9"/>
			<path class="st1" d="M40.5,46.3V13.7h9.6v32.5"/>
			<line class="st1" x1="8" y1="46.3" x2="52" y2="46.3"/>
		</g>
	</g>
</g>
</svg>
